{
    "logPath": "",
    "toStandard": false,
    "botname": "DickVigarista",
    "mode": "botfire",
    "create": "false",
    "join": "true",
    "trackname": "france",
    "carcount": "1",
    "password": "xupadawan"
}